<svg xmlns="http://www.w3.org/2000/svg" width="773" height="74" viewBox="0 0 773 74">
  <defs>
    <style>
      .cls-1 {
        font-size: 42px;
        font-weight: 700;
      }

      .cls-1, .cls-2 {
        text-anchor: middle;
        font-family: Gotham;
      }

      .cls-2 {
        font-size: 19px;
        fill: #e4002b;
        font-weight: 500;
      }
    </style>
  </defs>
  <text id="INGRESÁ_TUS_DATOS_PERSONALES" data-name="INGRESÁ TUS DATOS PERSONALES" class="cls-1" x="385.384" y="34.847"><tspan x="385.384">INGRESÁ TUS DATOS PERSONALES</tspan></text>
  <text id="JUNTO_CON_EL_CÓDIGO_PROMOCIONAL_PARA_QUEDAR_PARTICIPANDO" data-name="JUNTO CON EL CÓDIGO PROMOCIONAL PARA QUEDAR PARTICIPANDO" class="cls-2" x="386.628" y="67.467"><tspan x="386.628">JUNTO CON EL CÓDIGO PROMOCIONAL PARA QUEDAR PARTICIPANDO</tspan></text>
</svg>
